D:\OrgInitiative\codecoverage\code-coverage-project\code-coverage-project\src\main\java\com\mkyong\core\App.java
D:\OrgInitiative\codecoverage\code-coverage-project\code-coverage-project\src\main\java\com\mkyong\core\IdentityUtilities.java
D:\OrgInitiative\codecoverage\code-coverage-project\code-coverage-project\src\main\java\com\mkyong\core\Person.java
